<?xml version="1.0" standalone="no"?>
<!DOCTYPE svg PUBLIC "-//W3C//DTD SVG 1.1//EN" "http://www.w3.org/Graphics/SVG/1.1/DTD/svg11.dtd">
<svg xmlns="http://www.w3.org/2000/svg">
<metadata>Copyright (C) 2018 by original authors @ fontello.com</metadata>
<defs>
<font id="search" horiz-adv-x="1000" >
<font-face font-family="search" font-weight="400" font-stretch="normal" units-per-em="1000" ascent="850" descent="-150" />
<missing-glyph horiz-adv-x="1000" />
<glyph glyph-name="search" unicode="&#xe800;" d="M643 386q0 103-73 176t-177 74-177-74-73-176 73-177 177-73 177 73 73 177z m286-465q0-29-22-50t-50-21q-30 0-50 21l-191 191q-100-69-223-69-80 0-153 31t-125 84-84 125-31 153 31 152 84 126 125 84 153 31 153-31 125-84 84-126 31-152q0-123-69-223l191-191q21-21 21-51z" horiz-adv-x="928.6" />

<glyph glyph-name="left-open" unicode="&#xe801;" d="M654 682l-297-296 297-297q10-10 10-25t-10-25l-93-93q-11-10-25-10t-25 10l-414 415q-11 10-11 25t11 25l414 414q10 11 25 11t25-11l93-93q10-10 10-25t-10-25z" horiz-adv-x="714.3" />

<glyph glyph-name="left-open-big" unicode="&#xe802;" d="M452-20q26-26 0-48-26-26-48 0l-392 394q-24 24 0 50l392 394q22 26 48 0 26-22 0-48l-358-372z" horiz-adv-x="465" />

<glyph glyph-name="lock-open" unicode="&#xe803;" d="M929 529v-143q0-15-11-25t-25-11h-36q-14 0-25 11t-11 25v143q0 59-41 101t-101 41-101-41-42-101v-108h53q23 0 38-15t16-38v-322q0-22-16-37t-38-16h-535q-23 0-38 16t-16 37v322q0 22 16 38t38 15h375v108q0 103 73 176t177 74 176-74 74-176z" horiz-adv-x="928.6" />

<glyph glyph-name="lock" unicode="&#xe804;" d="M179 421h285v108q0 59-42 101t-101 41-101-41-41-101v-108z m464-53v-322q0-22-16-37t-38-16h-535q-23 0-38 16t-16 37v322q0 22 16 38t38 15h17v108q0 102 74 176t176 74 177-74 73-176v-108h18q23 0 38-15t16-38z" horiz-adv-x="642.9" />

<glyph glyph-name="trash-empty" unicode="&#xe805;" d="M286 439v-321q0-8-5-13t-13-5h-36q-8 0-13 5t-5 13v321q0 8 5 13t13 5h36q8 0 13-5t5-13z m143 0v-321q0-8-5-13t-13-5h-36q-8 0-13 5t-5 13v321q0 8 5 13t13 5h36q8 0 13-5t5-13z m142 0v-321q0-8-5-13t-12-5h-36q-8 0-13 5t-5 13v321q0 8 5 13t13 5h36q7 0 12-5t5-13z m72-404v529h-500v-529q0-12 4-22t8-15 6-5h464q2 0 6 5t8 15 4 22z m-375 601h250l-27 65q-4 5-9 6h-177q-6-1-10-6z m518-18v-36q0-8-5-13t-13-5h-54v-529q0-46-26-80t-63-34h-464q-37 0-63 33t-27 79v531h-53q-8 0-13 5t-5 13v36q0 8 5 13t13 5h172l39 93q9 21 31 35t44 15h178q23 0 44-15t30-35l39-93h173q8 0 13-5t5-13z" horiz-adv-x="785.7" />

<glyph glyph-name="trash" unicode="&#xe806;" d="M50 458q122-70 330-70t330 70l-54-486q-2-14-35-36t-100-43-141-21-140 21-100 43-36 36z m488 300q94-18 158-55t64-71l0-10q0-58-112-99t-268-41-268 41-112 99l0 10q0 34 64 71t158 55l42 48q22 26 70 26l92 0q52 0 70-26z m-54-112l84 0q-92 110-104 126-14 16-32 16l-102 0q-22 0-32-16l-106-126 84 0 64 66 82 0z" horiz-adv-x="760" />

<glyph glyph-name="user" unicode="&#xe807;" d="M736 128q204-72 204-122l0-106-940 0 0 106q0 50 204 122 94 34 128 69t34 95q0 22-22 49t-32 73q-2 12-9 18t-14 8-14 17-9 43q0 16 5 26t9 12l4 4q-8 50-12 88-4 54 41 112t157 58 158-58 40-112l-12-88q18-8 18-42-2-28-9-43t-14-17-14-8-9-18q-8-48-31-74t-23-48q0-60 35-95t127-69z" horiz-adv-x="940" />

<glyph glyph-name="switch" unicode="&#xe808;" d="M700 592l0-140-500 0 0-90-200 160 200 170 0-100 500 0z m300-420l-200-160 0 90-500 0 0 140 500 0 0 100z" horiz-adv-x="1000" />

<glyph glyph-name="trash-2" unicode="&#xe809;" d="M729 636q21 0 37-15t15-36-15-37-37-15l0-417q0-86-61-147t-147-62l-261 0q-86 0-147 62t-60 147l0 417q-22 0-37 15t-16 37 16 36 37 15l51 0 0 53q0 42 30 73t75 31l364 0q43 0 74-31t31-73l0-53 51 0z m-520 53l0-53 364 0 0 53-364 0z m416-573l0 417-469 0 0-417q0-43 31-74t73-31l261 0q43 0 73 31t31 74z m-390 338q10 0 18-8t7-17l0-313q0-10-7-18t-18-8-18 8-8 18l0 313q0 10 8 17t18 8z m104 0q10 0 18-8t8-17l0-313q0-10-8-18t-18-8-18 8-8 18l0 313q0 10 8 17t18 8z m104 0q10 0 18-8t8-17l0-313q0-10-8-18t-18-8-19 8-8 18l0 313q0 10 8 17t19 8z m105 0q10 0 17-8t8-17l0-313q0-10-8-18t-17-8-19 8-8 18l0 313q0 10 8 17t19 8z" horiz-adv-x="781" />

<glyph glyph-name="lock-1" unicode="&#xe80a;" d="M298 116q0 68 67 68t68-68-68-67-67 67z m67 677q85 0 146-62t62-146l0-105 52 0q43 0 73-31t31-73l0-365q0-42-31-73t-73-31l-521 0q-44 0-74 31t-30 73l0 365q0 43 30 73t74 31l52 0 0 105q0 60 30 107t74 73q48 28 105 28z m0-104q-44 0-74-31t-31-73l0-156 209 0 0 156q0 44-31 74t-73 30z m260-678l0 365-521 0 0-365 521 0z" horiz-adv-x="729" />

<glyph glyph-name="trash-1" unicode="&#xf1f8;" d="M286 82v393q0 8-5 13t-13 5h-36q-8 0-13-5t-5-13v-393q0-8 5-13t13-5h36q8 0 13 5t5 13z m143 0v393q0 8-5 13t-13 5h-36q-8 0-13-5t-5-13v-393q0-8 5-13t13-5h36q8 0 13 5t5 13z m142 0v393q0 8-5 13t-12 5h-36q-8 0-13-5t-5-13v-393q0-8 5-13t13-5h36q7 0 12 5t5 13z m-303 554h250l-27 65q-4 5-9 6h-177q-6-1-10-6z m518-18v-36q0-8-5-13t-13-5h-54v-529q0-46-26-80t-63-34h-464q-37 0-63 33t-27 79v531h-53q-8 0-13 5t-5 13v36q0 8 5 13t13 5h172l39 93q9 21 31 35t44 15h178q23 0 44-15t30-35l39-93h173q8 0 13-5t5-13z" horiz-adv-x="785.7" />

<glyph glyph-name="user-o" unicode="&#xf2c0;" d="M670 413q26-8 50-22t50-40 44-65 31-96 12-132q0-86-56-147t-134-61h-477q-78 0-134 61t-56 147q0 73 12 132t31 96 44 65 50 40 50 22q-44 69-44 151 0 58 23 111t61 91 91 61 111 23 110-23 92-61 61-91 22-111q0-82-44-151z m-241 366q-89 0-152-63t-63-152 63-151 152-63 151 63 63 151-63 152-151 63z m238-858q49 0 84 40t35 97q0 134-44 211t-126 80q-81-70-187-70t-188 70q-82-3-126-80t-44-211q0-57 35-97t84-40h477z" horiz-adv-x="857.1" />
</font>
</defs>
</svg>